sleep 2000
sleep 2000
sleep 2000
sleep 2000
sleep 2000
sleep 2000
sleep 2000
sleep 2000
sleep 2000
sleep 2000
sleep 2000
sleep 2000
sleep 2000
sleep 2000
sleep 2000
sleep 2000
sleep 2000
sleep 2000
sleep 2000
sleep 2000
sleep 2000
sleep 2000
sleep 2000
sleep 2000
sleep 2000
sleep 2000
sleep 2000
sleep 2000
sleep 2000
sleep 2000
sleep 2000
sleep 2000
sleep 2000
sleep 2000
sleep 2000
sleep 2000
sleep 2000
sleep 2000
sleep 2000
sleep 2000
sleep 2000
sleep 2000
sleep 2000
sleep 2000
sleep 2000
sleep 2000
sleep 2000
sleep 2000
sleep 2000
sleep 2000
sleep 2000
sleep 2000
sleep 2000
sleep 2000
sleep 2000
sleep 2000
sleep 2000
sleep 2000
sleep 2000
sleep 2000
sleep 2000
sleep 2000
sleep 2000
sleep 2000
sleep 2000
sleep 2000
sleep 2000
sleep 2000
sleep 2000
sleep 2000
sleep 2000
sleep 2000
sleep 2000
sleep 2000
sleep 2000
sleep 2000
sleep 2000
sleep 2000
sleep 2000
sleep 2000
sleep 2000
sleep 2000
sleep 2000
sleep 2000
sleep 2000
sleep 2000
sleep 2000
sleep 2000
sleep 2000
sleep 2000
sleep 2000
sleep 2000
sleep 2000
sleep 2000
sleep 2000
sleep 2000
sleep 2000
sleep 2000
sleep 2000
sleep 2000
sleep 2000
sleep 2000
sleep 2000
sleep 2000
sleep 2000
sleep 2000
sleep 2000
sleep 2000
sleep 2000
sleep 2000
sleep 2000
sleep 2000
sleep 2000
sleep 2000
sleep 2000
sleep 2000
sleep 2000
sleep 2000
sleep 2000
sleep 2000
sleep 2000
sleep 2000
sleep 2000
sleep 2000
sleep 2000
sleep 2000
sleep 2000
sleep 2000
sleep 2000
sleep 2000
sleep 2000
sleep 2000
sleep 2000
sleep 2000
sleep 2000
sleep 2000
sleep 2000
sleep 2000
sleep 2000
sleep 2000
sleep 2000
sleep 2000
sleep 2000
sleep 2000
sleep 2000
sleep 2000
sleep 2000
sleep 2000
sleep 2000
sleep 2000
sleep 2000
sleep 2000
sleep 2000
sleep 2000
sleep 2000
sleep 2000
sleep 2000
sleep 2000
sleep 2000
sleep 2000
sleep 2000
sleep 2000
sleep 2000
sleep 2000
sleep 2000
sleep 2000
sleep 2000
sleep 2000
sleep 2000
sleep 2000
sleep 2000
sleep 2000
sleep 2000
sleep 2000
sleep 2000
sleep 2000
sleep 2000
sleep 2000
sleep 2000
sleep 2000
sleep 2000
sleep 2000
sleep 2000
sleep 2000
sleep 2000
sleep 2000
sleep 2000
sleep 2000
sleep 2000
sleep 2000
sleep 2000
sleep 2000
sleep 2000
sleep 2000
sleep 2000
sleep 2000
sleep 2000
sleep 2000
sleep 2000
sleep 2000
sleep 2000
sleep 2000
sleep 2000
sleep 2000
sleep 2000
sleep 2000
sleep 2000
sleep 2000
sleep 2000
sleep 2000
sleep 2000
sleep 2000
sleep 2000
sleep 2000
sleep 2000
sleep 2000
sleep 2000
sleep 2000
sleep 2000
sleep 2000
sleep 2000
sleep 2000
sleep 2000
sleep 2000
sleep 2000
sleep 2000
sleep 2000
sleep 2000
sleep 2000
sleep 2000
sleep 2000
sleep 2000
sleep 2000
sleep 2000
sleep 2000
sleep 2000
sleep 2000
sleep 2000
sleep 2000
sleep 2000
sleep 2000
sleep 2000
sleep 2000
sleep 2000
sleep 2000
sleep 2000
sleep 2000
sleep 2000
sleep 2000
sleep 2000
sleep 2000
sleep 2000
sleep 2000
sleep 2000
sleep 2000
sleep 2000
sleep 2000
sleep 2000
sleep 2000
sleep 2000
sleep 2000
sleep 2000
sleep 2000
sleep 2000
sleep 2000
sleep 2000
sleep 2000
sleep 2000
sleep 2000
sleep 2000
sleep 2000
sleep 2000
sleep 2000
sleep 2000
sleep 2000
sleep 2000
sleep 2000
sleep 2000
sleep 2000
sleep 2000
sleep 2000
sleep 2000
sleep 2000
sleep 2000
sleep 2000
sleep 2000
sleep 2000
sleep 2000
sleep 2000
sleep 2000
sleep 2000
sleep 2000
sleep 2000
sleep 2000
sleep 2000
sleep 2000
sleep 2000
sleep 2000
sleep 2000
sleep 2000
sleep 2000
sleep 2000
sleep 2000
sleep 2000
sleep 2000
sleep 2000
sleep 2000
sleep 2000
sleep 2000
sleep 2000
sleep 2000
sleep 2000
sleep 2000
sleep 2000
sleep 2000
sleep 2000
sleep 2000
sleep 2000
sleep 2000
sleep 2000